acessing corpora and webscraping
…
visit project gutenberg 
 Project Gutenberg contains >60,000 free works in many different formats, languages, and file types. What we want for text mining is plain text. More specifically, we want structured text files. Files dont come automatically prepped that way from Project Gutenberg, but we can structure them ourselves. Per the Gutenberg website: 

Project Gutenberg was the first provider of free electronic books, or eBooks. Michael Hart, founder of Project Gutenberg, invented eBooks in 1971 and his memory continues to inspire the creation of eBooks and related content today. Return specific criteria: 

gutenberg_works(..., languages = "en", only_text = TRUE, rights = c("Public domain in the USA.", "None"),  distinct = TRUE, all_languages = FALSE, only_languages = TRUE)

Filtered table by specific criteria

glimpse(gutenberg_works()) lists all English language texts in project Gutenberg by whatever metafield you would like to filter on

gutenberg_works(author == "Dickens, Charles", languages = "en", only_text = TRUE, 
    rights = NULL, distinct = TRUE, all_languages = FALSE, only_languages = TRUE)  #all english works regardless of copyright
## # A tibble: 74 x 8
##    gutenberg_id title author gutenberg_autho language gutenberg_books rights
##           <int> <chr> <chr>             <int> <chr>    <chr>            <chr> 
##  1           46 "A C Dicke               37 en       Christmas/Child Publi
##  2           98 "A T Dicke               37 en       Historical Fict Publi
##  3          564 "The Dicke               37 en       Mystery Fiction  Publi
##  4          580 "The Dicke               37 en       Best Books Ever Publi
##  5          588 "Mas Dicke               37 en       <NA>             Publi
##  6          644 "The Dicke               37 en       Christmas        Publi
##  7          650 "Pic Dicke               37 en       <NA>             Publi
##  8          653 "The Dicke               37 en       <NA>             Publi
##  9          675 "Ame Dicke               37 en       <NA>             Publi
## 10          678 "The Dicke               37 en       Children's Lite Publi
## #  with 64 more rows, and 1 more variable: has_text <lgl>
…
