R Plot Annotation (mostly ggplot2)
…
Correlograms & Correlation Plots

Correlogram

This one goes out to Dr.Joshua Troche, Assistant Professor at the University of Central Florida. Dr.Troche crowdsourced ratings from 300+ people on 16 semantic dimensions for 750 English words. The correlation matrices and plots to follow reflect the strength of the relationship(s) between factors like sound salience, visual form, loudness. For example, sound and visual form tend to be highly correlated when considering words like dog. Josh published this work in Frontiers in Human Neuroscience. 

Ok. its hella important to coerce the first column to rownames or else you will get a big fat error when R tries to correlate a string with an integer. Ill print as a tibble so it looks a wee bit clean.

MDS_Corr <- read.csv("JoshCorr.csv", header = T, row.names = 1)
tib <- as_tibble(MDS_Corr)
print(tib)

## # A tibble: 751 x 16
##    Emotion Polarity Social Moral MotionSelf Thought Color TasteSmell
##  *   <dbl>    <dbl>  <dbl> <dbl>      <dbl>   <dbl> <dbl>      <dbl>
##  1    4.52     4.85   4.24  4.65        5.1    5.19   1.9       1.64
##  2    3.66     4.03   3.3   3.29        2.7    3.53   2.4       1.64
##  3    3.09     3.6    2.62  2.62        3.5    3.15   2.6       1.64
##  4    5.41     5.52   3.97  4.74        4.2    4.72   1.9       1.64
##  5    2.9      3.33   3.3   2.84        3.2    3.53   2         1.64
##  6    2.9      3.64   3.76  2.94        3.4    3.28   2         1.64
##  7    1.69     2.14   1.63  2.05        1.3    1.75   2.3       2.64
##  8    2.59     3.33   2.79  2.13        2      3.88   1.7       1.64
##  9    4.97     4.76   5.03  4.16        4.1    4.91   2         1.64
## 10    3.59     3.61   3.73  3.45        2.9    3.72   2.1       1.64
## # ... with 741 more rows, and 8 more variables: Tactile <dbl>,
## #   VisForm <dbl>, Auditory <dbl>, Space <dbl>, Quantity <dbl>,
## #   Time <dbl>, Concreteness <int>, Imageability <int>
…
